Destinataire (Civilité, Prénom, Nom);Raison sociale;Remise (appartement, chez);Complément (bâtiment, résidence);N° et libellé de voie;Complément commune ou service particulier;Code postal et localité;Pays;Distribution;Téléphone;Email;;;;;;;;;;;;;;;;;;;;;
ligne_1_destinataire;raison_soc;ligne_2;ligne_3;ligne_4;ligne_5;ligne_6;ligne_7;voie_QL;Téléphone;Email;"2016-Adhésion
Date paiement";"2016-Adhésion
Mode
paiement";"2016-Adhésion
Précisions";"2016-Adhésion
Montant";"2016-Don
Date
paiement";"2016-Don
Mode
paiement";2016-Don Précisions;"2016-Don
Montant";Existant ? ;Jours de retard;À jour;Première adhésion;Dernière cotis;Syndicat / Association;Profession;Commentaires laissés lors de l'adhésion;Commentaires d'Acrimed;IDF ?;Listes;Adresses;A enregistrer kits + listes
ADELE LEGOFF;;APPARTEMENT 31194;;46 RUE DU PÈRE DEVAL;;75019 PARIS;;0132;06 12 34 24 56;LEGOFF@WANADINGUE.FR;;;;;;;;;Vieux Radiation ;660;2015;31-01-2015;31-01-2015;;;;;IDF;LEGOFF@WANADINGUE.FR Adele Legoff;ADELE LEGOFFAPPARTEMENT 3119446 RUE DU PÈRE DEVAL75019 PARIS;
ADELE LEGOFF;;APPARTEMENT 31195;;47 RUE DU PÈRE DEVAL;;75019 PARIS;;0133;7 12 34 24 56;LEGOFF@WANADINGUE.FR;04-05-2016;CARTE BANCAIRE;; 5,00 € ;;;;;Vieux Radiation ;A jour;2016;04-05-2016;04-05-2016;;;;;IDF;LEGOFF@WANADINGUE.FR Adele Legoff;ADELE LEGOFFAPPARTEMENT 3119547 RUE DU PÈRE DEVAL75019 PARIS;
ADELE LEGOFF;;APPARTEMENT 31196;;48 RUE DU PÈRE DEVAL;;75019 PARIS;;0134;8 12 34 24 56;LEGOFF@WANADINGUE.FR;23-03-2016;CARTE BANCAIRE;; 10,00 € ;;;;;Vieux Radiation ;A jour;2016;23-03-2016;23-03-2016;;;;;IDF;LEGOFF@WANADINGUE.FR Adele Legoff;ADELE LEGOFFAPPARTEMENT 3119648 RUE DU PÈRE DEVAL75019 PARIS;
ADELE LEGOFF;;APPARTEMENT 31197;;49 RUE DU PÈRE DEVAL;;75019 PARIS;;0135;9 12 34 24 56;LEGOFF@WANADINGUE.FR;;;;;;;;;Vieux Radiation ;353;2015;04-12-2015;04-12-2015;;;;;IDF;LEGOFF@WANADINGUE.FR Adele Legoff;ADELE LEGOFFAPPARTEMENT 3119749 RUE DU PÈRE DEVAL75019 PARIS;
ADELE LEGOFF;;APPARTEMENT 31198;;50 RUE DU PÈRE DEVAL;;75019 PARIS;;0136;10 12 34 24 56;LEGOFF@WANADINGUE.FR;06-07-2016;CARTE BANCAIRE;; 70,00 € ;;;;;Vieux Radiation ;;2016;06-07-2016;06-07-2016;;;;;IDF;LEGOFF@WANADINGUE.FR Adele Legoff;ADELE LEGOFFAPPARTEMENT 3119850 RUE DU PÈRE DEVAL75019 PARIS;
ADELE LEGOFF;;APPARTEMENT 31199;;51 RUE DU PÈRE DEVAL;;75019 PARIS;;0137;11 12 34 24 56;LEGOFF@WANADINGUE.FR;;;;;;;;;Vieux Radiation ;439;2015;09-09-2015;09-09-2015;;;;;IDF;LEGOFF@WANADINGUE.FR Adele Legoff;ADELE LEGOFFAPPARTEMENT 3119951 RUE DU PÈRE DEVAL75019 PARIS;
ADELE LEGOFF;;APPARTEMENT 31200;;52 RUE DU PÈRE DEVAL;;75019 PARIS;;0138;12 12 34 24 56;LEGOFF@WANADINGUE.FR;;;;;;;;;Vieux Radiation ;407;2015;11-10-2015;11-10-2015;;;;;IDF;LEGOFF@WANADINGUE.FR Adele Legoff;ADELE LEGOFFAPPARTEMENT 3120052 RUE DU PÈRE DEVAL75019 PARIS;
